…
Usage
-----

**We need to assume that we already have downloaded a data file at the current working directory.**

-   Data import (`fars_read_years()`)

If you input a vector of years, you can get a `tibble` of all cases.

``` r
fars_read_years(c(2013, 2014))
#> [[1]]
#> # A tibble: 30,202 × 2
#>    MONTH  year
#>    <int> <dbl>
#> 1      1  2013
#> 2      1  2013
#> 3      1  2013
#> 4      1  2013
#> 5      1  2013
#> 6      1  2013
#> 7      1  2013
#> 8      1  2013
#> 9      1  2013
#> 10     1  2013
#> # ... with 30,192 more rows
#> 
#> [[2]]
#> # A tibble: 30,056 × 2
#>    MONTH  year
#>    <int> <dbl>
#> 1      1  2014
#> 2      1  2014
#> 3      1  2014
#> 4      1  2014
#> 5      1  2014
#> 6      1  2014
#> 7      1  2014
#> 8      1  2014
#> 9      1  2014
#> 10     1  2014
#> # ... with 30,046 more rows
```
…
